%YAML 1.1
%TAG !u! tag:unity3d.com,2011:
--- !u!1 &1692168586734917056
GameObject:
  m_ObjectHideFlags: 0
  m_CorrespondingSourceObject: {fileID: 0}
  m_PrefabInstance: {fileID: 0}
  m_PrefabAsset: {fileID: 0}
  serializedVersion: 6
  m_Component:
  - component: {fileID: 1692168586734917059}
  m_Layer: 0
  m_Name: TitlePanelPrefab
  m_TagString: Untagged
  m_Icon: {fileID: 0}
  m_NavMeshLayer: 0
  m_StaticEditorFlags: 0
  m_IsActive: 1
--- !u!224 &1692168586734917059
RectTransform:
  m_ObjectHideFlags: 0
  m_CorrespondingSourceObject: {fileID: 0}
  m_PrefabInstance: {fileID: 0}
  m_PrefabAsset: {fileID: 0}
  m_GameObject: {fileID: 1692168586734917056}
  m_LocalRotation: {x: -0, y: -0, z: -0, w: 1}
  m_LocalPosition: {x: 0, y: 0, z: 0}
  m_LocalScale: {x: 1, y: 1, z: 1}
  m_Children:
  - {fileID: 8545284696687184124}
  - {fileID: 1692168586331149374}
  m_Father: {fileID: 0}
  m_RootOrder: 0
  m_LocalEulerAnglesHint: {x: 0, y: 0, z: 0}
  m_AnchorMin: {x: 0.2829515, y: 0.9118618}
  m_AnchorMax: {x: 0.7206529, y: 1}
  m_AnchoredPosition: {x: -0.000015258789, y: -0.0000076293945}
  m_SizeDelta: {x: 0, y: 0}
  m_Pivot: {x: 0.5, y: 0.5}
--- !u!1001 &1692168587737468673
PrefabInstance:
  m_ObjectHideFlags: 0
  serializedVersion: 2
  m_Modification:
    m_TransformParent: {fileID: 1692168586734917059}
    m_Modifications:
    - target: {fileID: 3545349351054291388, guid: ab287a19f0f5c45edaf14aff6065681c,
        type: 3}
      propertyPath: m_Name
      value: BG
      objectReference: {fileID: 0}
    - target: {fileID: 7056359367288129533, guid: ab287a19f0f5c45edaf14aff6065681c,
        type: 3}
      propertyPath: m_LocalPosition.x
      value: 0
      objectReference: {fileID: 0}
    - target: {fileID: 7056359367288129533, guid: ab287a19f0f5c45edaf14aff6065681c,
        type: 3}
      propertyPath: m_LocalPosition.y
      value: 0
      objectReference: {fileID: 0}
    - target: {fileID: 7056359367288129533, guid: ab287a19f0f5c45edaf14aff6065681c,
        type: 3}
      propertyPath: m_LocalPosition.z
      value: 0
      objectReference: {fileID: 0}
    - target: {fileID: 7056359367288129533, guid: ab287a19f0f5c45edaf14aff6065681c,
        type: 3}
      propertyPath: m_LocalRotation.x
      value: -0
      objectReference: {fileID: 0}
    - target: {fileID: 7056359367288129533, guid: ab287a19f0f5c45edaf14aff6065681c,
        type: 3}
      propertyPath: m_LocalRotation.y
      value: -0
      objectReference: {fileID: 0}
    - target: {fileID: 7056359367288129533, guid: ab287a19f0f5c45edaf14aff6065681c,
        type: 3}
      propertyPath: m_LocalRotation.z
      value: -0
      objectReference: {fileID: 0}
    - target: {fileID: 7056359367288129533, guid: ab287a19f0f5c45edaf14aff6065681c,
        type: 3}
      propertyPath: m_LocalRotation.w
      value: 1
      objectReference: {fileID: 0}
    - target: {fileID: 7056359367288129533, guid: ab287a19f0f5c45edaf14aff6065681c,
        type: 3}
      propertyPath: m_RootOrder
      value: 0
      objectReference: {fileID: 0}
    - target: {fileID: 7056359367288129533, guid: ab287a19f0f5c45edaf14aff6065681c,
        type: 3}
      propertyPath: m_LocalEulerAnglesHint.x
      value: 0
      objectReference: {fileID: 0}
    - target: {fileID: 7056359367288129533, guid: ab287a19f0f5c45edaf14aff6065681c,
        type: 3}
      propertyPath: m_LocalEulerAnglesHint.y
      value: 0
      objectReference: {fileID: 0}
    - target: {fileID: 7056359367288129533, guid: ab287a19f0f5c45edaf14aff6065681c,
        type: 3}
      propertyPath: m_LocalEulerAnglesHint.z
      value: 0
      objectReference: {fileID: 0}
    - target: {fileID: 7056359367288129533, guid: ab287a19f0f5c45edaf14aff6065681c,
        type: 3}
      propertyPath: m_AnchoredPosition.x
      value: 0
      objectReference: {fileID: 0}
    - target: {fileID: 7056359367288129533, guid: ab287a19f0f5c45edaf14aff6065681c,
        type: 3}
      propertyPath: m_AnchoredPosition.y
      value: 0
      objectReference: {fileID: 0}
    - target: {fileID: 7056359367288129533, guid: ab287a19f0f5c45edaf14aff6065681c,
        type: 3}
      propertyPath: m_SizeDelta.x
      value: 0
      objectReference: {fileID: 0}
    - target: {fileID: 7056359367288129533, guid: ab287a19f0f5c45edaf14aff6065681c,
        type: 3}
      propertyPath: m_SizeDelta.y
      value: 0
      objectReference: {fileID: 0}
    - target: {fileID: 7056359367288129533, guid: ab287a19f0f5c45edaf14aff6065681c,
        type: 3}
      propertyPath: m_AnchorMin.x
      value: 0
      objectReference: {fileID: 0}
    - target: {fileID: 7056359367288129533, guid: ab287a19f0f5c45edaf14aff6065681c,
        type: 3}
      propertyPath: m_AnchorMin.y
      value: 0
      objectReference: {fileID: 0}
    - target: {fileID: 7056359367288129533, guid: ab287a19f0f5c45edaf14aff6065681c,
        type: 3}
      propertyPath: m_AnchorMax.x
      value: 1
      objectReference: {fileID: 0}
    - target: {fileID: 7056359367288129533, guid: ab287a19f0f5c45edaf14aff6065681c,
        type: 3}
      propertyPath: m_AnchorMax.y
      value: 1
      objectReference: {fileID: 0}
    - target: {fileID: 7056359367288129533, guid: ab287a19f0f5c45edaf14aff6065681c,
        type: 3}
      propertyPath: m_Pivot.x
      value: 0.5
      objectReference: {fileID: 0}
    - target: {fileID: 7056359367288129533, guid: ab287a19f0f5c45edaf14aff6065681c,
        type: 3}
      propertyPath: m_Pivot.y
      value: 0.5
      objectReference: {fileID: 0}
    m_RemovedComponents: []
  m_SourcePrefab: {fileID: 100100000, guid: ab287a19f0f5c45edaf14aff6065681c, type: 3}
--- !u!224 &8545284696687184124 stripped
RectTransform:
  m_CorrespondingSourceObject: {fileID: 7056359367288129533, guid: ab287a19f0f5c45edaf14aff6065681c,
    type: 3}
  m_PrefabInstance: {fileID: 1692168587737468673}
  m_PrefabAsset: {fileID: 0}
--- !u!1001 &9060479798256046636
PrefabInstance:
  m_ObjectHideFlags: 0
  serializedVersion: 2
  m_Modification:
    m_TransformParent: {fileID: 1692168586734917059}
    m_Modifications:
    - target: {fileID: 7693977759989646866, guid: b2638b0a97fa8484db388f31d4173927,
        type: 3}
      propertyPath: m_LocalPosition.x
      value: 0
      objectReference: {fileID: 0}
    - target: {fileID: 7693977759989646866, guid: b2638b0a97fa8484db388f31d4173927,
        type: 3}
      propertyPath: m_LocalPosition.y
      value: 0
      objectReference: {fileID: 0}
    - target: {fileID: 7693977759989646866, guid: b2638b0a97fa8484db388f31d4173927,
        type: 3}
      propertyPath: m_LocalPosition.z
      value: 0
      objectReference: {fileID: 0}
    - target: {fileID: 7693977759989646866, guid: b2638b0a97fa8484db388f31d4173927,
        type: 3}
      propertyPath: m_LocalRotation.x
      value: -0
      objectReference: {fileID: 0}
    - target: {fileID: 7693977759989646866, guid: b2638b0a97fa8484db388f31d4173927,
        type: 3}
      propertyPath: m_LocalRotation.y
      value: -0
      objectReference: {fileID: 0}
    - target: {fileID: 7693977759989646866, guid: b2638b0a97fa8484db388f31d4173927,
        type: 3}
      propertyPath: m_LocalRotation.z
      value: -0
      objectReference: {fileID: 0}
    - target: {fileID: 7693977759989646866, guid: b2638b0a97fa8484db388f31d4173927,
        type: 3}
      propertyPath: m_LocalRotation.w
      value: 1
      objectReference: {fileID: 0}
    - target: {fileID: 7693977759989646866, guid: b2638b0a97fa8484db388f31d4173927,
        type: 3}
      propertyPath: m_RootOrder
      value: 1
      objectReference: {fileID: 0}
    - target: {fileID: 7693977759989646866, guid: b2638b0a97fa8484db388f31d4173927,
        type: 3}
      propertyPath: m_LocalEulerAnglesHint.x
      value: 0
      objectReference: {fileID: 0}
    - target: {fileID: 7693977759989646866, guid: b2638b0a97fa8484db388f31d4173927,
        type: 3}
      propertyPath: m_LocalEulerAnglesHint.y
      value: 0
      objectReference: {fileID: 0}
    - target: {fileID: 7693977759989646866, guid: b2638b0a97fa8484db388f31d4173927,
        type: 3}
      propertyPath: m_LocalEulerAnglesHint.z
      value: 0
      objectReference: {fileID: 0}
    - target: {fileID: 7693977759989646866, guid: b2638b0a97fa8484db388f31d4173927,
        type: 3}
      propertyPath: m_AnchoredPosition.x
      value: 0
      objectReference: {fileID: 0}
    - target: {fileID: 7693977759989646866, guid: b2638b0a97fa8484db388f31d4173927,
        type: 3}
      propertyPath: m_AnchoredPosition.y
      value: 0
      objectReference: {fileID: 0}
    - target: {fileID: 7693977759989646866, guid: b2638b0a97fa8484db388f31d4173927,
        type: 3}
      propertyPath: m_SizeDelta.x
      value: 0
      objectReference: {fileID: 0}
    - target: {fileID: 7693977759989646866, guid: b2638b0a97fa8484db388f31d4173927,
        type: 3}
      propertyPath: m_SizeDelta.y
      value: 0
      objectReference: {fileID: 0}
    - target: {fileID: 7693977759989646866, guid: b2638b0a97fa8484db388f31d4173927,
        type: 3}
      propertyPath: m_AnchorMin.x
      value: 0
      objectReference: {fileID: 0}
    - target: {fileID: 7693977759989646866, guid: b2638b0a97fa8484db388f31d4173927,
        type: 3}
      propertyPath: m_AnchorMin.y
      value: 0
      objectReference: {fileID: 0}
    - target: {fileID: 7693977759989646866, guid: b2638b0a97fa8484db388f31d4173927,
        type: 3}
      propertyPath: m_AnchorMax.x
      value: 1
      objectReference: {fileID: 0}
    - target: {fileID: 7693977759989646866, guid: b2638b0a97fa8484db388f31d4173927,
        type: 3}
      propertyPath: m_AnchorMax.y
      value: 1
      objectReference: {fileID: 0}
    - target: {fileID: 7693977759989646866, guid: b2638b0a97fa8484db388f31d4173927,
        type: 3}
      propertyPath: m_Pivot.x
      value: 0.5
      objectReference: {fileID: 0}
    - target: {fileID: 7693977759989646866, guid: b2638b0a97fa8484db388f31d4173927,
        type: 3}
      propertyPath: m_Pivot.y
      value: 0.5
      objectReference: {fileID: 0}
    - target: {fileID: 7693977759989646867, guid: b2638b0a97fa8484db388f31d4173927,
        type: 3}
      propertyPath: m_Name
      value: TitleText
      objectReference: {fileID: 0}
    - target: {fileID: 7693977759989646869, guid: b2638b0a97fa8484db388f31d4173927,
        type: 3}
      propertyPath: m_text
      value: Battle
      objectReference: {fileID: 0}
    - target: {fileID: 7693977759989646869, guid: b2638b0a97fa8484db388f31d4173927,
        type: 3}
      propertyPath: m_textInfo.characterCount
      value: 6
      objectReference: {fileID: 0}
    - target: {fileID: 7693977759989646869, guid: b2638b0a97fa8484db388f31d4173927,
        type: 3}
      propertyPath: m_textInfo.spaceCount
      value: 0
      objectReference: {fileID: 0}
    - target: {fileID: 7693977759989646869, guid: b2638b0a97fa8484db388f31d4173927,
        type: 3}
      propertyPath: m_textInfo.wordCount
      value: 1
      objectReference: {fileID: 0}
    - target: {fileID: 7693977759989646869, guid: b2638b0a97fa8484db388f31d4173927,
        type: 3}
      propertyPath: m_fontSize
      value: 11.15
      objectReference: {fileID: 0}
    m_RemovedComponents: []
  m_SourcePrefab: {fileID: 100100000, guid: b2638b0a97fa8484db388f31d4173927, type: 3}
--- !u!224 &1692168586331149374 stripped
RectTransform:
  m_CorrespondingSourceObject: {fileID: 7693977759989646866, guid: b2638b0a97fa8484db388f31d4173927,
    type: 3}
  m_PrefabInstance: {fileID: 9060479798256046636}
  m_PrefabAsset: {fileID: 0}
