%YAML 1.1
%TAG !u! tag:unity3d.com,2011:
--- !u!74 &7400000
AnimationClip:
  m_ObjectHideFlags: 0
  m_CorrespondingSourceObject: {fileID: 0}
  m_PrefabInstance: {fileID: 0}
  m_PrefabAsset: {fileID: 0}
  m_Name: SpecialAttack_W
  serializedVersion: 6
  m_Legacy: 0
  m_Compressed: 0
  m_UseHighQualityCurve: 1
  m_RotationCurves: []
  m_CompressedRotationCurves: []
  m_EulerCurves: []
  m_PositionCurves: []
  m_ScaleCurves: []
  m_FloatCurves: []
  m_PPtrCurves:
  - curve:
    - time: 0
      value: {fileID: 21300000, guid: 19d6e741052704a898ef65d14a433387, type: 3}
    - time: 0.083333336
      value: {fileID: 21300000, guid: f12733ef725b14af2a041b387eafd914, type: 3}
    - time: 0.16666667
      value: {fileID: 21300000, guid: 883f89d96a7b2487d9807b0884dc71e1, type: 3}
    - time: 0.25
      value: {fileID: 21300000, guid: 0f014f6badc6542e699a5fa2cebee0cf, type: 3}
    - time: 0.33333334
      value: {fileID: 21300000, guid: 92b1b6a873d4e4ac0af99c882ec994b9, type: 3}
    - time: 0.41666666
      value: {fileID: 21300000, guid: 8710bed7636d84dc3b009909f553c5dd, type: 3}
    - time: 0.5
      value: {fileID: 21300000, guid: 380932f2e91e44f7b9cc8b98692292fd, type: 3}
    - time: 0.5833333
      value: {fileID: 21300000, guid: aeeba0e09170544cfb90216804dda3d7, type: 3}
    - time: 1
      value: {fileID: 21300000, guid: b1137139eb6d048cbb5f0dc0c06635e2, type: 3}
    attribute: m_Sprite
    path: Animation/Scale/Sprite
    classID: 212
    script: {fileID: 0}
  m_SampleRate: 12
  m_WrapMode: 0
  m_Bounds:
    m_Center: {x: 0, y: 0, z: 0}
    m_Extent: {x: 0, y: 0, z: 0}
  m_ClipBindingConstant:
    genericBindings:
    - serializedVersion: 2
      path: 1417411149
      attribute: 0
      script: {fileID: 0}
      typeID: 212
      customType: 23
      isPPtrCurve: 1
    pptrCurveMapping:
    - {fileID: 21300000, guid: 19d6e741052704a898ef65d14a433387, type: 3}
    - {fileID: 21300000, guid: f12733ef725b14af2a041b387eafd914, type: 3}
    - {fileID: 21300000, guid: 883f89d96a7b2487d9807b0884dc71e1, type: 3}
    - {fileID: 21300000, guid: 0f014f6badc6542e699a5fa2cebee0cf, type: 3}
    - {fileID: 21300000, guid: 92b1b6a873d4e4ac0af99c882ec994b9, type: 3}
    - {fileID: 21300000, guid: 8710bed7636d84dc3b009909f553c5dd, type: 3}
    - {fileID: 21300000, guid: 380932f2e91e44f7b9cc8b98692292fd, type: 3}
    - {fileID: 21300000, guid: aeeba0e09170544cfb90216804dda3d7, type: 3}
    - {fileID: 21300000, guid: b1137139eb6d048cbb5f0dc0c06635e2, type: 3}
  m_AnimationClipSettings:
    serializedVersion: 2
    m_AdditiveReferencePoseClip: {fileID: 0}
    m_AdditiveReferencePoseTime: 0
    m_StartTime: 0
    m_StopTime: 1.0833334
    m_OrientationOffsetY: 0
    m_Level: 0
    m_CycleOffset: 0
    m_HasAdditiveReferencePose: 0
    m_LoopTime: 1
    m_LoopBlend: 0
    m_LoopBlendOrientation: 0
    m_LoopBlendPositionY: 0
    m_LoopBlendPositionXZ: 0
    m_KeepOriginalOrientation: 0
    m_KeepOriginalPositionY: 1
    m_KeepOriginalPositionXZ: 0
    m_HeightFromFeet: 0
    m_Mirror: 0
  m_EditorCurves: []
  m_EulerEditorCurves: []
  m_HasGenericRootTransform: 0
  m_HasMotionFloatCurves: 0
  m_Events:
  - time: 0.5833333
    functionName: SpecialHit
    data: 
    objectReferenceParameter: {fileID: 0}
    floatParameter: 0
    intParameter: 0
    messageOptions: 0
