%YAML 1.1
%TAG !u! tag:unity3d.com,2011:
--- !u!74 &7400000
AnimationClip:
  m_ObjectHideFlags: 0
  m_CorrespondingSourceObject: {fileID: 0}
  m_PrefabInstance: {fileID: 0}
  m_PrefabAsset: {fileID: 0}
  m_Name: WitchCheer
  serializedVersion: 6
  m_Legacy: 0
  m_Compressed: 0
  m_UseHighQualityCurve: 1
  m_RotationCurves: []
  m_CompressedRotationCurves: []
  m_EulerCurves: []
  m_PositionCurves: []
  m_ScaleCurves: []
  m_FloatCurves: []
  m_PPtrCurves:
  - curve:
    - time: 0
      value: {fileID: 21300000, guid: 52f8bad5d4f2048ee8e175aa92c7483b, type: 3}
    - time: 0.083333336
      value: {fileID: 21300000, guid: a8658b9fd4e3541d881926e3b6c36bb4, type: 3}
    - time: 0.16666667
      value: {fileID: 21300000, guid: cf11aeab0696d464fa5fc338b99781c2, type: 3}
    - time: 0.25
      value: {fileID: 21300000, guid: 3a5dacaad6efb4dc38f1aabfba99cadd, type: 3}
    - time: 0.33333334
      value: {fileID: 21300000, guid: 30acf00b692544c85879e367d6dcb1cd, type: 3}
    - time: 0.41666666
      value: {fileID: 21300000, guid: 4a9877ea332674580a23327d13282948, type: 3}
    - time: 0.5
      value: {fileID: 21300000, guid: aeeba0e09170544cfb90216804dda3d7, type: 3}
    - time: 0.9166667
      value: {fileID: 21300000, guid: b1137139eb6d048cbb5f0dc0c06635e2, type: 3}
    attribute: m_Sprite
    path: Animation/Scale/Sprite
    classID: 212
    script: {fileID: 0}
  m_SampleRate: 12
  m_WrapMode: 0
  m_Bounds:
    m_Center: {x: 0, y: 0, z: 0}
    m_Extent: {x: 0, y: 0, z: 0}
  m_ClipBindingConstant:
    genericBindings:
    - serializedVersion: 2
      path: 1417411149
      attribute: 0
      script: {fileID: 0}
      typeID: 212
      customType: 23
      isPPtrCurve: 1
    pptrCurveMapping:
    - {fileID: 21300000, guid: 52f8bad5d4f2048ee8e175aa92c7483b, type: 3}
    - {fileID: 21300000, guid: a8658b9fd4e3541d881926e3b6c36bb4, type: 3}
    - {fileID: 21300000, guid: cf11aeab0696d464fa5fc338b99781c2, type: 3}
    - {fileID: 21300000, guid: 3a5dacaad6efb4dc38f1aabfba99cadd, type: 3}
    - {fileID: 21300000, guid: 30acf00b692544c85879e367d6dcb1cd, type: 3}
    - {fileID: 21300000, guid: 4a9877ea332674580a23327d13282948, type: 3}
    - {fileID: 21300000, guid: aeeba0e09170544cfb90216804dda3d7, type: 3}
    - {fileID: 21300000, guid: b1137139eb6d048cbb5f0dc0c06635e2, type: 3}
  m_AnimationClipSettings:
    serializedVersion: 2
    m_AdditiveReferencePoseClip: {fileID: 0}
    m_AdditiveReferencePoseTime: 0
    m_StartTime: 0
    m_StopTime: 1
    m_OrientationOffsetY: 0
    m_Level: 0
    m_CycleOffset: 0
    m_HasAdditiveReferencePose: 0
    m_LoopTime: 1
    m_LoopBlend: 0
    m_LoopBlendOrientation: 0
    m_LoopBlendPositionY: 0
    m_LoopBlendPositionXZ: 0
    m_KeepOriginalOrientation: 0
    m_KeepOriginalPositionY: 1
    m_KeepOriginalPositionXZ: 0
    m_HeightFromFeet: 0
    m_Mirror: 0
  m_EditorCurves: []
  m_EulerEditorCurves: []
  m_HasGenericRootTransform: 0
  m_HasMotionFloatCurves: 0
  m_Events: []
